[
null,
{"id":1,"list":[{"code":111,"indent":0,"parameters":[1,1,0,0,0]},{"code":355,"indent":1,"parameters":["$WME_lastActionId = 0;"]},{"code":655,"indent":1,"parameters":["BattleManager.initLetterRate();"]},{"code":326,"indent":1,"parameters":[0,0,0,0,7]},{"code":0,"indent":1,"parameters":[]},{"code":412,"indent":0,"parameters":[]},{"code":122,"indent":0,"parameters":[1,1,1,0,1]},{"code":121,"indent":0,"parameters":[1,1,1]},{"code":0,"indent":0,"parameters":[]}],"name":"Story","switchId":1,"trigger":1},
{"id":2,"list":[{"code":101,"indent":0,"parameters":["",0,0,2]},{"code":401,"indent":0,"parameters":["Activate the switch?"]},{"code":102,"indent":0,"parameters":[["Yes","No"],1,0,2,0]},{"code":402,"indent":0,"parameters":[0,"Yes"]},{"code":230,"indent":1,"parameters":[30]},{"code":250,"indent":1,"parameters":[{"name":"Magic2","volume":90,"pitch":100,"pan":0}]},{"code":230,"indent":1,"parameters":[60]},{"code":250,"indent":1,"parameters":[{"name":"Crash","volume":90,"pitch":100,"pan":0}]},{"code":230,"indent":1,"parameters":[30]},{"code":122,"indent":1,"parameters":[2,2,1,0,1]},{"code":230,"indent":1,"parameters":[30]},{"code":101,"indent":1,"parameters":["",0,0,2]},{"code":401,"indent":1,"parameters":["(There was a sound of crystal breaking.)"]},{"code":0,"indent":1,"parameters":[]},{"code":402,"indent":0,"parameters":[1,"No"]},{"code":0,"indent":1,"parameters":[]},{"code":404,"indent":0,"parameters":[]},{"code":0,"indent":0,"parameters":[]}],"name":"Switch","switchId":1,"trigger":0}
]