[
null,
{"id":1,"expanded":true,"name":"Earth Field","order":1,"parentId":0,"scrollX":2168,"scrollY":1220},
{"id":2,"expanded":true,"name":"Creative District","order":2,"parentId":1,"scrollX":2168,"scrollY":1220},
{"id":3,"expanded":false,"name":"Shew Tower FX","order":3,"parentId":2,"scrollX":2168,"scrollY":1220},
{"id":4,"expanded":true,"name":"Unidentified Virt World","order":4,"parentId":0,"scrollX":2168,"scrollY":1220},
{"id":5,"expanded":true,"name":"Germ House (Outside)","order":5,"parentId":4,"scrollX":832,"scrollY":640},
{"id":6,"expanded":true,"name":"Germ House (Inside)","order":6,"parentId":5,"scrollX":2168,"scrollY":1220},
{"id":7,"expanded":true,"name":"Insight Jungle","order":7,"parentId":4,"scrollX":2136,"scrollY":1220},
{"id":8,"expanded":false,"name":"Insight Jungle (Inner)","order":8,"parentId":7,"scrollX":2136,"scrollY":1220}
]