[
null,
{"id":1,"animationId":-1,"damage":{"critical":true,"elementId":-1,"formula":"a.atk - b.def / 2","type":1,"variance":20},"description":"","effects":[{"code":21,"dataId":0,"value1":1,"value2":0}],"hitType":1,"iconIndex":76,"message1":" attacks!","message2":"","mpCost":0,"name":"Attack","note":"Skill #1 will be used when you select\nthe Attack command.\n<setup action>\n  DISPLAY ACTION\n  IMMORTAL: target, true\n  IF (user.attackMotion() == 'missile')\n    PERFORM START\n    IF (user._multiTargets)\n      MOTION ATTACK: user\n      ACTION ANIMATION\n      WAIT FOR ANIMATION\n    END\n  END\n</setup action>\n<target action>\n  IF (user.attackMotion() != 'missile')\n    MOVE user: target, FRONT, 5\n    WAIT FOR MOVEMENT\n    FACE user: target\n  END\n  IF (user.attackMotion() != 'missile' || !user._multiTargets)\n    MOTION ATTACK: user\n    ACTION ANIMATION\n    WAIT FOR ANIMATION\n  END\n  ACTION EFFECT\n  IF (!user._multiHits)\n    WAIT: 20\n  END\n</target action>\n<finish action>\n  PERFORM FINISH\n  IMMORTAL: target, false\n  CLEAR BATTLE LOG\n</finish action>","occasion":1,"repeats":1,"requiredWtypeId1":0,"requiredWtypeId2":0,"scope":1,"speed":2000,"stypeId":0,"successRate":100,"tpCost":0,"tpGain":0},
{"id":2,"animationId":0,"damage":{"critical":false,"elementId":0,"formula":"0","type":0,"variance":20},"description":"","effects":[{"code":21,"dataId":2,"value1":1,"value2":0}],"hitType":0,"iconIndex":81,"message1":" defends.","message2":"","mpCost":0,"name":"Defend","note":"Skill #2 will be used when you select\nthe Defend command.","occasion":1,"repeats":1,"requiredWtypeId1":0,"requiredWtypeId2":0,"scope":11,"speed":2000,"stypeId":0,"successRate":100,"tpCost":0,"tpGain":0},
{"id":3,"animationId":0,"damage":{"critical":false,"elementId":0,"formula":"0","type":0,"variance":20},"description":"","effects":[],"hitType":0,"iconIndex":104,"message1":"","message2":"","mpCost":0,"name":"LastRune","note":"Skill #3 will be used when you select\nthe Attack command (RuneGun).\n<Custom Requirement>\n  value = true && user._RuneSkill;\n</Custom Requirement>\n<After Eval>\n  BattleManager.queueForceAction(user, user._RuneSkill, -2);\n</After Eval>","occasion":1,"repeats":1,"requiredWtypeId1":0,"requiredWtypeId2":0,"scope":1,"speed":0,"stypeId":0,"successRate":100,"tpCost":0,"tpGain":0},
{"id":4,"animationId":0,"damage":{"critical":false,"elementId":0,"formula":"0","type":0,"variance":20},"description":"","effects":[],"hitType":0,"iconIndex":0,"message1":"","message2":"","mpCost":0,"name":"","note":"","occasion":0,"repeats":1,"requiredWtypeId1":0,"requiredWtypeId2":0,"scope":1,"speed":0,"stypeId":1,"successRate":100,"tpCost":0,"tpGain":0},
{"id":5,"animationId":0,"damage":{"critical":false,"elementId":0,"formula":"0","type":0,"variance":20},"description":"","effects":[],"hitType":0,"iconIndex":0,"message1":"","message2":"","mpCost":0,"name":"","note":"","occasion":0,"repeats":1,"requiredWtypeId1":0,"requiredWtypeId2":0,"scope":1,"speed":0,"stypeId":1,"successRate":100,"tpCost":0,"tpGain":0},
{"id":6,"animationId":0,"damage":{"critical":false,"elementId":0,"formula":"0","type":0,"variance":20},"description":"","effects":[],"hitType":0,"iconIndex":0,"message1":"","message2":"","mpCost":0,"name":"","note":"","occasion":0,"repeats":1,"requiredWtypeId1":0,"requiredWtypeId2":0,"scope":1,"speed":0,"stypeId":1,"successRate":100,"tpCost":0,"tpGain":0},
{"id":7,"animationId":0,"damage":{"critical":false,"elementId":0,"formula":"0","type":0,"variance":20},"description":"","effects":[],"hitType":0,"iconIndex":0,"message1":"","message2":"","mpCost":0,"name":"","note":"","occasion":0,"repeats":1,"requiredWtypeId1":0,"requiredWtypeId2":0,"scope":1,"speed":0,"stypeId":1,"successRate":100,"tpCost":0,"tpGain":0},
{"id":8,"animationId":0,"damage":{"critical":false,"elementId":0,"formula":"0","type":0,"variance":20},"description":"","effects":[],"hitType":0,"iconIndex":0,"message1":"","message2":"","mpCost":0,"name":"","note":"","occasion":0,"repeats":1,"requiredWtypeId1":0,"requiredWtypeId2":0,"scope":1,"speed":0,"stypeId":1,"successRate":100,"tpCost":0,"tpGain":0},
{"id":9,"animationId":0,"damage":{"critical":false,"elementId":0,"formula":"0","type":0,"variance":20},"description":"","effects":[],"hitType":0,"iconIndex":0,"message1":"","message2":"","mpCost":0,"name":"","note":"","occasion":0,"repeats":1,"requiredWtypeId1":0,"requiredWtypeId2":0,"scope":1,"speed":0,"stypeId":1,"successRate":100,"tpCost":0,"tpGain":0},
{"id":10,"animationId":0,"damage":{"critical":false,"elementId":0,"formula":"0","type":0,"variance":20},"description":"","effects":[],"hitType":0,"iconIndex":0,"message1":"","message2":"","mpCost":0,"name":"","note":"","occasion":0,"repeats":1,"requiredWtypeId1":0,"requiredWtypeId2":0,"scope":1,"speed":0,"stypeId":1,"successRate":100,"tpCost":0,"tpGain":0},
{"id":11,"animationId":11,"damage":{"critical":false,"elementId":1,"formula":"1","type":1,"variance":0},"description":"Rune: A   Power: 01   Limit: 16","effects":[],"hitType":0,"iconIndex":0,"message1":" uses %1!","message2":"","mpCost":1,"name":"A","note":"<Limit Uses: 16>\n<Skill Type: 2>","occasion":1,"repeats":1,"requiredWtypeId1":0,"requiredWtypeId2":0,"scope":1,"speed":0,"stypeId":1,"successRate":100,"tpCost":0,"tpGain":0},
{"id":12,"animationId":12,"damage":{"critical":false,"elementId":2,"formula":"3","type":1,"variance":0},"description":"Rune: B   Power: 03   Limit: 04","effects":[],"hitType":0,"iconIndex":0,"message1":" uses %1!","message2":"","mpCost":3,"name":"B","note":"<Limit Uses: 4>\n<Skill Type: 4>","occasion":1,"repeats":1,"requiredWtypeId1":0,"requiredWtypeId2":0,"scope":1,"speed":0,"stypeId":1,"successRate":100,"tpCost":0,"tpGain":0},
{"id":13,"animationId":13,"damage":{"critical":false,"elementId":3,"formula":"3","type":1,"variance":0},"description":"Rune: C   Power: 03   Limit: 06","effects":[],"hitType":0,"iconIndex":0,"message1":" uses %1!","message2":"","mpCost":3,"name":"C","note":"<Limit Uses: 6>\n<Skill Type: 4>","occasion":1,"repeats":1,"requiredWtypeId1":0,"requiredWtypeId2":0,"scope":1,"speed":0,"stypeId":1,"successRate":100,"tpCost":0,"tpGain":0},
{"id":14,"animationId":14,"damage":{"critical":false,"elementId":4,"formula":"2","type":1,"variance":0},"description":"Rune: D   Power: 02   Limit: 08","effects":[],"hitType":0,"iconIndex":0,"message1":" uses %1!","message2":"","mpCost":2,"name":"D","note":"<Limit Uses: 8>\n<Skill Type: 3>","occasion":1,"repeats":1,"requiredWtypeId1":0,"requiredWtypeId2":0,"scope":1,"speed":0,"stypeId":1,"successRate":100,"tpCost":0,"tpGain":0},
{"id":15,"animationId":15,"damage":{"critical":false,"elementId":5,"formula":"1","type":1,"variance":0},"description":"Rune: E   Power: 01   Limit: 24","effects":[],"hitType":0,"iconIndex":0,"message1":" uses %1!","message2":"","mpCost":1,"name":"E","note":"<Limit Uses: 24>\n<Skill Type: 2>","occasion":1,"repeats":1,"requiredWtypeId1":0,"requiredWtypeId2":0,"scope":1,"speed":0,"stypeId":1,"successRate":100,"tpCost":0,"tpGain":0},
{"id":16,"animationId":16,"damage":{"critical":false,"elementId":6,"formula":"4","type":1,"variance":0},"description":"Rune: F   Power: 04   Limit: 04","effects":[],"hitType":0,"iconIndex":0,"message1":" uses %1!","message2":"","mpCost":4,"name":"F","note":"<Limit Uses: 4>\n<Skill Type: 5>","occasion":1,"repeats":1,"requiredWtypeId1":0,"requiredWtypeId2":0,"scope":1,"speed":0,"stypeId":1,"successRate":100,"tpCost":0,"tpGain":0},
{"id":17,"animationId":17,"damage":{"critical":false,"elementId":7,"formula":"2","type":1,"variance":0},"description":"Rune: G   Power: 02   Limit: 05","effects":[],"hitType":0,"iconIndex":0,"message1":" uses %1!","message2":"","mpCost":2,"name":"G","note":"<Limit Uses: 5>\n<Skill Type: 3>","occasion":1,"repeats":1,"requiredWtypeId1":0,"requiredWtypeId2":0,"scope":1,"speed":0,"stypeId":1,"successRate":100,"tpCost":0,"tpGain":0},
{"id":18,"animationId":18,"damage":{"critical":false,"elementId":8,"formula":"4","type":1,"variance":0},"description":"Rune: H   Power: 04   Limit: 05","effects":[],"hitType":0,"iconIndex":0,"message1":" uses %1!","message2":"","mpCost":4,"name":"H","note":"<Limit Uses: 5>\n<Skill Type: 5>","occasion":1,"repeats":1,"requiredWtypeId1":0,"requiredWtypeId2":0,"scope":1,"speed":0,"stypeId":1,"successRate":100,"tpCost":0,"tpGain":0},
{"id":19,"animationId":19,"damage":{"critical":false,"elementId":9,"formula":"1","type":1,"variance":0},"description":"Rune: I   Power: 01   Limit: 13","effects":[],"hitType":0,"iconIndex":0,"message1":" uses %1!","message2":"","mpCost":1,"name":"I","note":"<Limit Uses: 13>\n<Skill Type: 2>","occasion":1,"repeats":1,"requiredWtypeId1":0,"requiredWtypeId2":0,"scope":1,"speed":0,"stypeId":1,"successRate":100,"tpCost":0,"tpGain":0},
{"id":20,"animationId":20,"damage":{"critical":false,"elementId":10,"formula":"8","type":1,"variance":0},"description":"Rune: J   Power: 08   Limit: 02","effects":[],"hitType":0,"iconIndex":0,"message1":" uses %1!","message2":"","mpCost":6,"name":"J","note":"<Limit Uses: 2>\n<Skill Type: 7>","occasion":1,"repeats":1,"requiredWtypeId1":0,"requiredWtypeId2":0,"scope":1,"speed":0,"stypeId":1,"successRate":100,"tpCost":0,"tpGain":0},
{"id":21,"animationId":21,"damage":{"critical":false,"elementId":11,"formula":"5","type":1,"variance":0},"description":"Rune: K   Power: 05   Limit: 02","effects":[],"hitType":0,"iconIndex":0,"message1":" uses %1!","message2":"","mpCost":5,"name":"K","note":"<Limit Uses: 2>\n<Skill Type: 6>","occasion":1,"repeats":1,"requiredWtypeId1":0,"requiredWtypeId2":0,"scope":1,"speed":0,"stypeId":1,"successRate":100,"tpCost":0,"tpGain":0},
{"id":22,"animationId":22,"damage":{"critical":false,"elementId":12,"formula":"1","type":1,"variance":0},"description":"Rune: L   Power: 01   Limit: 07","effects":[],"hitType":0,"iconIndex":0,"message1":" uses %1!","message2":"","mpCost":1,"name":"L","note":"<Limit Uses: 7>\n<Skill Type: 2>","occasion":1,"repeats":1,"requiredWtypeId1":0,"requiredWtypeId2":0,"scope":1,"speed":0,"stypeId":1,"successRate":100,"tpCost":0,"tpGain":0},
{"id":23,"animationId":23,"damage":{"critical":false,"elementId":13,"formula":"3","type":1,"variance":0},"description":"Rune: M   Power: 03   Limit: 06","effects":[],"hitType":0,"iconIndex":0,"message1":" uses %1!","message2":"","mpCost":3,"name":"M","note":"<Limit Uses: 6>\n<Skill Type: 4>","occasion":1,"repeats":1,"requiredWtypeId1":0,"requiredWtypeId2":0,"scope":1,"speed":0,"stypeId":1,"successRate":100,"tpCost":0,"tpGain":0},
{"id":24,"animationId":24,"damage":{"critical":false,"elementId":14,"formula":"1","type":1,"variance":0},"description":"Rune: N   Power: 01   Limit: 13","effects":[],"hitType":0,"iconIndex":0,"message1":" uses %1!","message2":"","mpCost":1,"name":"N","note":"<Limit Uses: 13>\n<Skill Type: 2>","occasion":1,"repeats":1,"requiredWtypeId1":0,"requiredWtypeId2":0,"scope":1,"speed":0,"stypeId":1,"successRate":100,"tpCost":0,"tpGain":0},
{"id":25,"animationId":25,"damage":{"critical":false,"elementId":15,"formula":"1","type":1,"variance":0},"description":"Rune: O   Power: 01   Limit: 15","effects":[],"hitType":0,"iconIndex":0,"message1":" uses %1!","message2":"","mpCost":1,"name":"O","note":"<Limit Uses: 15>\n<Skill Type: 2>","occasion":1,"repeats":1,"requiredWtypeId1":0,"requiredWtypeId2":0,"scope":1,"speed":0,"stypeId":1,"successRate":100,"tpCost":0,"tpGain":0},
{"id":26,"animationId":26,"damage":{"critical":false,"elementId":16,"formula":"3","type":1,"variance":0},"description":"Rune: P   Power: 03   Limit: 04","effects":[],"hitType":0,"iconIndex":0,"message1":" uses %1!","message2":"","mpCost":3,"name":"P","note":"<Limit Uses: 4>\n<Skill Type: 4>","occasion":1,"repeats":1,"requiredWtypeId1":0,"requiredWtypeId2":0,"scope":1,"speed":0,"stypeId":1,"successRate":100,"tpCost":0,"tpGain":0},
{"id":27,"animationId":27,"damage":{"critical":false,"elementId":17,"formula":"10","type":1,"variance":0},"description":"Rune: Q   Power: 10   Limit: 02","effects":[],"hitType":0,"iconIndex":0,"message1":" uses %1!","message2":"","mpCost":7,"name":"Q","note":"<Limit Uses: 2>\n<Skill Type: 8>","occasion":1,"repeats":1,"requiredWtypeId1":0,"requiredWtypeId2":0,"scope":1,"speed":0,"stypeId":1,"successRate":100,"tpCost":0,"tpGain":0},
{"id":28,"animationId":28,"damage":{"critical":false,"elementId":18,"formula":"1","type":1,"variance":0},"description":"Rune: R   Power: 01   Limit: 13","effects":[],"hitType":0,"iconIndex":0,"message1":" uses %1!","message2":"","mpCost":1,"name":"R","note":"<Limit Uses: 13>\n<Skill Type: 2>","occasion":1,"repeats":1,"requiredWtypeId1":0,"requiredWtypeId2":0,"scope":1,"speed":0,"stypeId":1,"successRate":100,"tpCost":0,"tpGain":0},
{"id":29,"animationId":29,"damage":{"critical":false,"elementId":19,"formula":"1","type":1,"variance":0},"description":"Rune: S   Power: 01   Limit: 10","effects":[],"hitType":0,"iconIndex":0,"message1":" uses %1!","message2":"","mpCost":1,"name":"S","note":"<Limit Uses: 10>\n<Skill Type: 2>","occasion":1,"repeats":1,"requiredWtypeId1":0,"requiredWtypeId2":0,"scope":1,"speed":0,"stypeId":1,"successRate":100,"tpCost":0,"tpGain":0},
{"id":30,"animationId":30,"damage":{"critical":false,"elementId":20,"formula":"1","type":1,"variance":0},"description":"Rune: T   Power: 01   Limit: 15","effects":[],"hitType":0,"iconIndex":0,"message1":" uses %1!","message2":"","mpCost":1,"name":"T","note":"<Limit Uses: 15>\n<Skill Type: 2>","occasion":1,"repeats":1,"requiredWtypeId1":0,"requiredWtypeId2":0,"scope":1,"speed":0,"stypeId":1,"successRate":100,"tpCost":0,"tpGain":0},
{"id":31,"animationId":31,"damage":{"critical":false,"elementId":21,"formula":"1","type":1,"variance":0},"description":"Rune: U   Power: 01   Limit: 07","effects":[],"hitType":0,"iconIndex":0,"message1":" uses %1!","message2":"","mpCost":1,"name":"U","note":"<Limit Uses: 7>\n<Skill Type: 2>","occasion":1,"repeats":1,"requiredWtypeId1":0,"requiredWtypeId2":0,"scope":1,"speed":0,"stypeId":1,"successRate":100,"tpCost":0,"tpGain":0},
{"id":32,"animationId":32,"damage":{"critical":false,"elementId":22,"formula":"4","type":1,"variance":0},"description":"Rune: V   Power: 04   Limit: 03","effects":[],"hitType":0,"iconIndex":0,"message1":" uses %1!","message2":"","mpCost":4,"name":"V","note":"<Limit Uses: 3>\n<Skill Type: 5>","occasion":1,"repeats":1,"requiredWtypeId1":0,"requiredWtypeId2":0,"scope":1,"speed":0,"stypeId":1,"successRate":100,"tpCost":0,"tpGain":0},
{"id":33,"animationId":33,"damage":{"critical":false,"elementId":23,"formula":"4","type":1,"variance":0},"description":"Rune: W   Power: 04   Limit: 04","effects":[],"hitType":0,"iconIndex":0,"message1":" uses %1!","message2":"","mpCost":4,"name":"W","note":"<Limit Uses: 4>\n<Skill Type: 5>","occasion":1,"repeats":1,"requiredWtypeId1":0,"requiredWtypeId2":0,"scope":1,"speed":0,"stypeId":1,"successRate":100,"tpCost":0,"tpGain":0},
{"id":34,"animationId":34,"damage":{"critical":false,"elementId":24,"formula":"8","type":1,"variance":0},"description":"Rune: X   Power: 08   Limit: 02","effects":[],"hitType":0,"iconIndex":0,"message1":" uses %1!","message2":"","mpCost":6,"name":"X","note":"<Limit Uses: 2>\n<Skill Type: 7>","occasion":1,"repeats":1,"requiredWtypeId1":0,"requiredWtypeId2":0,"scope":1,"speed":0,"stypeId":1,"successRate":100,"tpCost":0,"tpGain":0},
{"id":35,"animationId":35,"damage":{"critical":false,"elementId":25,"formula":"4","type":1,"variance":0},"description":"Rune: Y   Power: 04   Limit: 04","effects":[],"hitType":0,"iconIndex":0,"message1":" uses %1!","message2":"","mpCost":4,"name":"Y","note":"<Limit Uses: 4>\n<Skill Type: 5>","occasion":1,"repeats":1,"requiredWtypeId1":0,"requiredWtypeId2":0,"scope":1,"speed":0,"stypeId":1,"successRate":100,"tpCost":0,"tpGain":0},
{"id":36,"animationId":36,"damage":{"critical":false,"elementId":26,"formula":"10","type":1,"variance":0},"description":"Rune: Z   Power: 10   Limit: 02","effects":[],"hitType":0,"iconIndex":0,"message1":" uses %1!","message2":"","mpCost":7,"name":"Z","note":"<Limit Uses: 2>\n<Skill Type: 8>","occasion":1,"repeats":1,"requiredWtypeId1":0,"requiredWtypeId2":0,"scope":1,"speed":0,"stypeId":1,"successRate":100,"tpCost":0,"tpGain":0},
{"id":37,"animationId":1,"damage":{"critical":false,"elementId":0,"formula":"10","type":1,"variance":0},"description":"Rune: *   Power: 10   Limit: 04","effects":[],"hitType":0,"iconIndex":0,"message1":" uses %1!","message2":"","mpCost":7,"name":"*","note":"<Multiple Elements: 1 to 26>\n<Limit Uses: 4>\n<Skill Type: 8>","occasion":1,"repeats":1,"requiredWtypeId1":0,"requiredWtypeId2":0,"scope":1,"speed":0,"stypeId":1,"successRate":100,"tpCost":0,"tpGain":0},
{"id":38,"animationId":38,"damage":{"critical":false,"elementId":0,"formula":"0","type":0,"variance":0},"description":"Rune: ♥ (Recover Health, Energy, & Rune)","effects":[],"hitType":0,"iconIndex":0,"message1":" uses %1!","message2":"","mpCost":0,"name":"♥","note":"<Global Limited Uses: +99>\n<After Eval>\n  var gain = target.mhp - target.hp;\n  if (gain > 0)\n    target.gainHp(target.mhp - target.hp);\n  gain = target.mmp - target.mp;\n  if (gain > 0)\n    target.gainMp(target.mmp - target.mp);\n  target.startDamagePopup();\n  target.clearResult();\n</After Eval>","occasion":0,"repeats":1,"requiredWtypeId1":0,"requiredWtypeId2":0,"scope":7,"speed":0,"stypeId":1,"successRate":100,"tpCost":1,"tpGain":0}
]