[
null,
{"id":1,"autoRemovalTiming":0,"chanceByDamage":100,"traits":[],"iconIndex":1,"maxTurns":1,"message1":"","message2":"","message3":"","message4":"","minTurns":1,"motion":3,"name":"Death","note":"State #1 will be automatically added when\nHP reaches 0.\n<Category: Illness>","overlay":0,"priority":100,"removeAtBattleEnd":false,"removeByDamage":false,"removeByRestriction":false,"removeByWalking":false,"restriction":4,"stepsToRemove":100},
{"id":2,"autoRemovalTiming":2,"chanceByDamage":100,"description":"","iconIndex":30,"maxTurns":1,"message1":"","message2":"","message3":"","message4":"","minTurns":1,"motion":0,"name":"Defend","note":"State #2 will be used when you select\nthe Defend command.","overlay":0,"priority":0,"removeAtBattleEnd":true,"removeByDamage":false,"removeByRestriction":true,"removeByWalking":false,"restriction":0,"stepsToRemove":100,"traits":[{"code":62,"dataId":1,"value":0}]},
{"id":3,"autoRemovalTiming":0,"chanceByDamage":100,"traits":[],"iconIndex":0,"maxTurns":1,"message1":"","message2":"","message3":"","message4":"","minTurns":1,"motion":0,"name":"[Actor]","note":"","overlay":0,"priority":99,"removeAtBattleEnd":false,"removeByDamage":false,"removeByRestriction":false,"removeByWalking":false,"restriction":0,"stepsToRemove":100},
{"id":4,"autoRemovalTiming":0,"chanceByDamage":100,"traits":[{"code":13,"dataId":1,"value":0}],"iconIndex":0,"maxTurns":1,"message1":"","message2":"","message3":"","message4":"","minTurns":1,"motion":0,"name":"--[Boss]","note":"","overlay":0,"priority":99,"removeAtBattleEnd":false,"removeByDamage":false,"removeByRestriction":false,"removeByWalking":false,"restriction":0,"stepsToRemove":100},
{"id":5,"autoRemovalTiming":0,"chanceByDamage":100,"traits":[],"iconIndex":0,"maxTurns":1,"message1":"","message2":"","message3":"","message4":"","minTurns":1,"motion":0,"name":"[Global]","note":"<Custom Action Start Effect>\n  user._multiHits = undefined;\n  user._multiTargets = undefined;\n</Custom Action Start Effect>\n<Custom Deselect Effect>\n  if (this.isSkill()\n      && this.item().id >= 11\n      && this.item().id <= 36) {\n    $WME_lastActionId = this.item().id;\n    user._RuneSkill = this.item().id;\n  }\n</Custom Deselect Effect>","overlay":0,"priority":99,"removeAtBattleEnd":false,"removeByDamage":false,"removeByRestriction":false,"removeByWalking":false,"restriction":0,"stepsToRemove":100},
{"id":6,"autoRemovalTiming":0,"chanceByDamage":100,"traits":[{"code":21,"dataId":2,"value":1.2},{"code":21,"dataId":3,"value":0.8},{"code":21,"dataId":6,"value":1.2},{"code":21,"dataId":7,"value":0.8}],"iconIndex":0,"maxTurns":1,"message1":"","message2":"","message3":"","message4":"","minTurns":1,"motion":0,"name":"[FrontRow]","note":"","overlay":0,"priority":98,"removeAtBattleEnd":false,"removeByDamage":false,"removeByRestriction":false,"removeByWalking":false,"restriction":0,"stepsToRemove":100},
{"id":7,"autoRemovalTiming":0,"chanceByDamage":100,"traits":[{"code":21,"dataId":2,"value":0.8},{"code":21,"dataId":3,"value":1.2},{"code":21,"dataId":6,"value":0.8},{"code":21,"dataId":7,"value":1.2}],"iconIndex":0,"maxTurns":1,"message1":"","message2":"","message3":"","message4":"","minTurns":1,"motion":0,"name":"[BackRow]","note":"","overlay":0,"priority":98,"removeAtBattleEnd":false,"removeByDamage":false,"removeByRestriction":false,"removeByWalking":false,"restriction":0,"stepsToRemove":100}
]